{
  "intents": [
    {
      "intent": "goodbyes",
      "examples": [
        {
          "text": "bye"
        },
        {
          "text": "catch you later"
        },
        {
          "text": "c ya"
        },
        {
          "text": "good bye"
        },
        {
          "text": "see you"
        },
        {
          "text": "talk to you soon"
        }
      ],
      "description": ""
    },
    {
      "intent": "greetings",
      "examples": [
        {
          "text": "good afternoon"
        },
        {
          "text": "good evening"
        },
        {
          "text": "good morning"
        },
        {
          "text": "hello"
        },
        {
          "text": "hey"
        },
        {
          "text": "hi"
        },
        {
          "text": "kia ora"
        }
      ],
      "description": ""
    },
    {
      "intent": "hours_info",
      "examples": [
        {
          "text": "Are you open on Christmas' Day?"
        },
        {
          "text": "Are you open on Saturdays?"
        },
        {
          "text": "Are you open on Sundays?"
        },
        {
          "text": "what are the hours of operation for your Montreal store"
        },
        {
          "text": "what are you hours of operation in Toronto"
        },
        {
          "text": "What are your hours?"
        },
        {
          "text": "What are your hours of operation?"
        },
        {
          "text": "What days are you closed on?"
        },
        {
          "text": "What time are you open until?"
        },
        {
          "text": "When are you open"
        },
        {
          "text": "When do you close"
        },
        {
          "text": "When do you open"
        }
      ]
    },
    {
      "intent": "location_info",
      "examples": [
        {
          "text": "do you have a flower shop in Montreal"
        },
        {
          "text": "Give me a list of locations"
        },
        {
          "text": "List of location"
        },
        {
          "text": "list of your locations"
        },
        {
          "text": "locations in America"
        },
        {
          "text": "Locations in Canada"
        },
        {
          "text": "What are your locations?"
        },
        {
          "text": "What's the address of your Toronto store?"
        },
        {
          "text": "what's the address of your Vancouver store?"
        },
        {
          "text": "Where are you physically located?"
        },
        {
          "text": "Where are your stores?"
        },
        {
          "text": "where is your Toronto store?"
        }
      ]
    },
    {
      "intent": "thank_you",
      "examples": [
        {
          "text": "appreciate it"
        },
        {
          "text": "cheers"
        },
        {
          "text": "thanks"
        },
        {
          "text": "thank you"
        },
        {
          "text": "thx"
        }
      ],
      "description": ""
    }
  ],
  "entities": [
    {
      "entity": "location",
      "values": [
        {
          "type": "synonyms",
          "value": "Calgary",
          "synonyms": []
        },
        {
          "type": "synonyms",
          "value": "Montreal",
          "synonyms": []
        },
        {
          "type": "synonyms",
          "value": "Toronto",
          "synonyms": [
            "Warden Avenue"
          ]
        },
        {
          "type": "synonyms",
          "value": "Vancouver",
          "synonyms": [
            "Burnaby "
          ]
        }
      ],
      "fuzzy_match": true
    },
    {
      "entity": "occasion",
      "values": [
        {
          "type": "synonyms",
          "value": "Anniversary",
          "synonyms": []
        },
        {
          "type": "synonyms",
          "value": "Birthday",
          "synonyms": [
            "b-day",
            "bday",
            "birth day"
          ]
        },
        {
          "type": "synonyms",
          "value": "Christmas",
          "synonyms": [
            "Dec 25",
            "December 25",
            "December 25th",
            "Yule"
          ]
        },
        {
          "type": "synonyms",
          "value": "Congratulations",
          "synonyms": [
            "award",
            "success"
          ]
        },
        {
          "type": "synonyms",
          "value": "Funeral",
          "synonyms": [
            "celebration of life",
            "condolences",
            "grief",
            "Shiva",
            "sorrow",
            "sympathy",
            "wake"
          ]
        },
        {
          "type": "synonyms",
          "value": "Get Well",
          "synonyms": [
            "cancer",
            "disease",
            "hospital",
            "ill",
            "sickness"
          ]
        },
        {
          "type": "synonyms",
          "value": "Graduation",
          "synonyms": [
            "commencement",
            "grad",
            "graduate",
            "graduating"
          ]
        },
        {
          "type": "synonyms",
          "value": "Mother's Day",
          "synonyms": [
            "Mom's Day",
            "Mothering Sunday",
            "Mum's Day"
          ]
        },
        {
          "type": "synonyms",
          "value": "Retirement",
          "synonyms": []
        },
        {
          "type": "synonyms",
          "value": "Valentine's Day",
          "synonyms": [
            "Feb 14",
            "February 14",
            "February 14th",
            "heart day",
            "valentines"
          ]
        },
        {
          "type": "synonyms",
          "value": "Wedding",
          "synonyms": [
            "best man",
            "bride",
            "bridesmaid",
            "groom"
          ]
        }
      ]
    },
    {
      "entity": "relationship",
      "values": [
        {
          "type": "synonyms",
          "value": "boyfriend",
          "synonyms": [
            "beau"
          ]
        },
        {
          "type": "synonyms",
          "value": "couple",
          "synonyms": []
        },
        {
          "type": "synonyms",
          "value": "father",
          "synonyms": [
            "dad",
            "daddy",
            "pops"
          ]
        },
        {
          "type": "synonyms",
          "value": "friend",
          "synonyms": [
            "acquaintance",
            "associate",
            "bestie",
            "BFF",
            "coach",
            "colleague",
            "companion",
            "neighbor",
            "professor",
            "roommate",
            "teacher",
            "trainer"
          ]
        },
        {
          "type": "synonyms",
          "value": "girlfriend",
          "synonyms": [
            "fiancee",
            "GF"
          ]
        },
        {
          "type": "synonyms",
          "value": "husband",
          "synonyms": []
        },
        {
          "type": "synonyms",
          "value": "mother",
          "synonyms": [
            "mama",
            "mom",
            "mommy",
            "momsie",
            "mum"
          ]
        },
        {
          "type": "synonyms",
          "value": "partner",
          "synonyms": []
        },
        {
          "type": "synonyms",
          "value": "relative",
          "synonyms": [
            "aunt",
            "brother",
            "cousin",
            "grandma",
            "grandpa",
            "grannie",
            "granny",
            "sister",
            "step",
            "uncle"
          ]
        },
        {
          "type": "synonyms",
          "value": "wife",
          "synonyms": []
        }
      ]
    }
  ],
  "metadata": {
    "api_version": {
      "major_version": "v2",
      "minor_version": "2018-11-08"
    }
  },
  "dialog_nodes": [
    {
      "type": "standard",
      "title": "Anything else",
      "output": {
        "generic": [
          {
            "values": [
              {
                "text": "I didn't understand. You can try rephrasing."
              },
              {
                "text": "Can you reword your statement? I'm not understanding."
              },
              {
                "text": "I didn't get your meaning."
              },
              {
                "text": "It looks like we are not quite getting each other today. Would you like to talk to a human agent instead? If so, please contact us at 555-123-4567 or email us at support\\@example.org."
              }
            ],
            "response_type": "text",
            "selection_policy": "sequential"
          }
        ]
      },
      "conditions": "anything_else",
      "dialog_node": "Anything else",
      "previous_sibling": "node_8_1590612411280",
      "disambiguation_opt_out": true
    },
    {
      "type": "standard",
      "title": "Hours of Operation",
      "output": {
        "generic": []
      },
      "next_step": {
        "behavior": "skip_user_input"
      },
      "conditions": "#hours_info",
      "dialog_node": "node_1_1590777961325",
      "previous_sibling": "node_2_1591210242424"
    },
    {
      "type": "standard",
      "title": "Location Information",
      "output": {
        "generic": []
      },
      "next_step": {
        "behavior": "skip_user_input"
      },
      "conditions": "#location_info",
      "dialog_node": "node_1_1590779518919",
      "previous_sibling": "node_1_1590777961325"
    },
    {
      "type": "standard",
      "title": "Greetings",
      "output": {
        "generic": [
          {
            "values": [
              {
                "text": "Hi there. How can I help you?"
              },
              {
                "text": "Hello. How may I assist you today?"
              },
              {
                "text": "Hi. What can I help you with?"
              }
            ],
            "response_type": "text",
            "selection_policy": "sequential"
          }
        ]
      },
      "parent": "node_8_1590612411280",
      "conditions": "#greetings",
      "dialog_node": "node_2_1590612434212"
    },
    {
      "type": "standard",
      "title": "Our Locations",
      "output": {},
      "parent": "node_1_1590779518919",
      "metadata": {
        "_customization": {
          "mcr": true
        }
      },
      "conditions": "$city",
      "dialog_node": "node_2_1590779518922"
    },
    {
      "type": "standard",
      "title": "Assign City",
      "output": {
        "generic": []
      },
      "context": {
        "city": "@location"
      },
      "next_step": {
        "behavior": "jump_to",
        "selector": "condition",
        "dialog_node": "node_1_1590777961325"
      },
      "conditions": "@location",
      "dialog_node": "node_2_1591210242424",
      "previous_sibling": "Welcome"
    },
    {
      "type": "standard",
      "title": "Goodbyes",
      "output": {
        "generic": [
          {
            "values": [
              {
                "text": "Nice talking to you today. We hope you visit our $city store."
              },
              {
                "text": "We hope you visit our $city store. Have a nice day."
              },
              {
                "text": "Nice talking to you today. We hope to see you in our $city store."
              }
            ],
            "response_type": "text",
            "selection_policy": "random"
          }
        ]
      },
      "parent": "node_8_1590612411280",
      "conditions": "#goodbyes",
      "dialog_node": "node_4_1590612466630",
      "previous_sibling": "node_5_1590612449155"
    },
    {
      "type": "standard",
      "title": "Thank You",
      "output": {
        "generic": [
          {
            "values": [
              {
                "text": "You're welcome. Please let me know if you need anything else."
              },
              {
                "text": "My pleasure."
              },
              {
                "text": "No problem. Let me know if there is anything else I can help with."
              },
              {
                "text": "I aim to please. 😊"
              }
            ],
            "response_type": "text",
            "selection_policy": "random"
          }
        ]
      },
      "parent": "node_8_1590612411280",
      "conditions": "#thank_you",
      "dialog_node": "node_5_1590612449155",
      "previous_sibling": "node_2_1590612434212"
    },
    {
      "type": "standard",
      "title": "No Location",
      "output": {
        "generic": [
          {
            "values": [
              {
                "text": "Our hours of operations are listed on <a href=\"https://example.org/hours/\">our Hours page</a>."
              }
            ],
            "response_type": "text",
            "selection_policy": "sequential"
          }
        ]
      },
      "parent": "node_1_1590777961325",
      "conditions": "true",
      "dialog_node": "node_5_1590779046488",
      "previous_sibling": "node_8_1590778379693"
    },
    {
      "type": "standard",
      "title": "No Location",
      "output": {
        "generic": [
          {
            "values": [
              {
                "text": "Our store locations are listed on our site on the <a href=\"https://example.org/stores\">stores page</a>."
              }
            ],
            "response_type": "text",
            "selection_policy": "sequential"
          }
        ]
      },
      "parent": "node_1_1590779518919",
      "conditions": "true",
      "dialog_node": "node_7_1590779518922",
      "previous_sibling": "node_2_1590779518922"
    },
    {
      "type": "standard",
      "title": "Collect Name",
      "output": {
        "generic": [
          {
            "values": [
              {
                "text": "Nice to meet you, $name. How can I help you? You can ask me about our store hours, locations, or flower recommendations."
              }
            ],
            "response_type": "text",
            "selection_policy": "sequential"
          }
        ]
      },
      "parent": "Welcome",
      "context": {
        "name": "<? input.text.substring(0, 1).toUpperCase() + input.text.substring(1) ?>"
      },
      "conditions": "true",
      "dialog_node": "node_7_1591211788743"
    },
    {
      "type": "folder",
      "title": "Chitchat",
      "digress_in": "does_not_return",
      "dialog_node": "node_8_1590612411280",
      "previous_sibling": "node_1_1590779518919"
    },
    {
      "type": "standard",
      "title": "Our Locations",
      "parent": "node_1_1590777961325",
      "metadata": {
        "_customization": {
          "mcr": true
        }
      },
      "conditions": "$city",
      "dialog_node": "node_8_1590778379693"
    },
    {
      "type": "response_condition",
      "output": {
        "generic": [
          {
            "values": [
              {
                "text": "Our Toronto store is open Monday to Saturday from 9 am until 6 pm, except statutory holidays."
              }
            ],
            "response_type": "text",
            "selection_policy": "sequential"
          }
        ]
      },
      "parent": "node_8_1590778379693",
      "conditions": "$city:Toronto",
      "dialog_node": "response_1_1590778453112"
    },
    {
      "type": "response_condition",
      "output": {
        "generic": [
          {
            "values": [
              {
                "text": "Our Toronto store is located at 123 Warden Avenue."
              }
            ],
            "response_type": "text",
            "selection_policy": "sequential"
          }
        ]
      },
      "parent": "node_2_1590779518922",
      "conditions": "$city:Toronto",
      "dialog_node": "response_3_1590779518922"
    },
    {
      "type": "response_condition",
      "output": {
        "text": {
          "values": [
            "Our Calgary store is open Monday to Friday from 9 am until 6 pm, except statutory holidays."
          ],
          "selection_policy": "sequential"
        }
      },
      "parent": "node_8_1590778379693",
      "conditions": "$city:Calgary",
      "dialog_node": "response_4_1590778514330",
      "previous_sibling": "response_7_1590778494168"
    },
    {
      "type": "response_condition",
      "output": {
        "text": {
          "values": [
            "Our Montreal store is located at 100 Park Avenue."
          ],
          "selection_policy": "sequential"
        }
      },
      "parent": "node_2_1590779518922",
      "conditions": "$city:Montreal",
      "dialog_node": "response_4_1590779518922",
      "previous_sibling": "response_3_1590779518922"
    },
    {
      "type": "response_condition",
      "output": {
        "text": {
          "values": [
            "Our Calgary store is located on the second floor of the Chinook Mall at 6455 Macleod Trail."
          ],
          "selection_policy": "sequential"
        }
      },
      "parent": "node_2_1590779518922",
      "conditions": "$city:Calgary",
      "dialog_node": "response_5_1590779518922",
      "previous_sibling": "response_4_1590779518922"
    },
    {
      "type": "response_condition",
      "output": {
        "text": {
          "values": [
            "Our Vancouver store is located at 883 Hastings St."
          ],
          "selection_policy": "sequential"
        }
      },
      "parent": "node_2_1590779518922",
      "conditions": "$city:Vancouver",
      "dialog_node": "response_6_1590779518922",
      "previous_sibling": "response_5_1590779518922"
    },
    {
      "type": "response_condition",
      "output": {
        "text": {
          "values": [
            "Our Montreal store is open Monday to Saturday from 9 am until 5 pm, except statutory holidays."
          ],
          "selection_policy": "sequential"
        }
      },
      "parent": "node_8_1590778379693",
      "conditions": "$city:Montreal",
      "dialog_node": "response_7_1590778494168",
      "previous_sibling": "response_1_1590778453112"
    },
    {
      "type": "response_condition",
      "output": {
        "text": {
          "values": [
            "Our Vancouver store is open Monday to Saturday from 10 am until 6:30 pm, except statutory holidays."
          ],
          "selection_policy": "sequential"
        }
      },
      "parent": "node_8_1590778379693",
      "conditions": "$city:Vancouver",
      "dialog_node": "response_9_1590778503978",
      "previous_sibling": "response_4_1590778514330"
    },
    {
      "type": "standard",
      "title": "Welcome",
      "output": {
        "generic": [
          {
            "values": [
              {
                "text": "Hello, my name is Florence and I'm a chatbot. What name can I call you by?"
              }
            ],
            "response_type": "text",
            "selection_policy": "sequential"
          }
        ]
      },
      "conditions": "welcome",
      "dialog_node": "Welcome"
    }
  ],
  "counterexamples": [],
  "system_settings": {
    "off_topic": {
      "enabled": true
    },
    "disambiguation": {
      "prompt": "Did you mean:",
      "enabled": true,
      "randomize": true,
      "max_suggestions": 5,
      "suggestion_text_policy": "title",
      "none_of_the_above_prompt": "None of the above"
    },
    "system_entities": {
      "enabled": true
    },
    "human_agent_assist": {
      "prompt": "Did you mean:"
    },
    "spelling_auto_correct": true
  },
  "learning_opt_out": false,
  "name": "Flower Shop Skill",
  "language": "en",
  "description": ""
}
